…
yearweek()：周度

as_date(), ymd()：日度

as_datetime(), ymd_hms()：小于每日

关键变量

tsibble 允许在一个对象中存储多个时间序列。

library(fpp3)

olympic_running

## # A tsibble: 312 x 4 [4Y]
## # Key:       Length, Sex [14]
##     Year Length Sex    Time
##    <int>  <int> <chr> <dbl>
##  1  1896    100 men    12  
##  2  1900    100 men    11  
##  3  1904    100 men    11  
##  4  1908    100 men    10.8
##  5  1912    100 men    10.8
##  6  1916    100 men    NA  
##  7  1920    100 men    10.8
##  8  1924    100 men    10.6
##  9  1928    100 men    10.8
## 10  1932    100 men    10.3
## # ℹ 302 more rows
…
## # A tibble: 2 × 1
##   Sex  
##   <chr>
## 1 men  
## 2 women

tsibble 对象的处理

可以使用 dplyr 中的函数 例如 mutate()、filter()、select() 以及 summarise() 来处理 tsibble 对象。

library(fpp3)

PBS

## # A tsibble: 67,596 x 9 [1M]
## # Key:       Concession, Type, ATC1, ATC2 [336]
##        Month Concession   Type     ATC1  ATC1_desc ATC2  ATC2_desc Scripts  Cost
##        <mth> <chr>        <chr>    <chr> <chr>     <chr> <chr>       <dbl> <dbl>
##  1  1991 7月 Concessional Co-paym… A     Alimenta… A01   STOMATOL…   18228 67877
##  2  1991 8月 Concessional Co-paym… A     Alimenta… A01   STOMATOL…   15327 57011
##  3  1991 9月 Concessional Co-paym… A     Alimenta… A01   STOMATOL…   14775 55020
##  4 1991 10月 Concessional Co-paym… A     Alimenta… A01   STOMATOL…   15380 57222
##  5 1991 11月 Concessional Co-paym… A     Alimenta… A01   STOMATOL…   14371 52120
##  6 1991 12月 Concessional Co-paym… A     Alimenta… A01   STOMATOL…   15028 54299
##  7  1992 1月 Concessional Co-paym… A     Alimenta… A01   STOMATOL…   11040 39753
##  8  1992 2月 Concessional Co-paym… A     Alimenta… A01   STOMATOL…   15165 54405
##  9  1992 3月 Concessional Co-paym… A     Alimenta… A01   STOMATOL…   16898 61108
## 10  1992 4月 Concessional Co-paym… A     Alimenta… A01   STOMATOL…   18141 65356
## # ℹ 67,586 more rows
…
prison <- prison |>
    mutate(Quarter = yearquarter(Date)) |>
    select(-Date) |> 
    as_tsibble(
        key = c(State, Gender, Legal, Indigenous),
        index = Quarter,
    )
prison

## # A tsibble: 3,072 x 6 [1Q]
## # Key:       State, Gender, Legal, Indigenous [64]
##    State Gender Legal    Indigenous Count Quarter
##    <chr> <chr>  <chr>    <chr>      <dbl>   <qtr>
##  1 ACT   Female Remanded ATSI           0 2005 Q1
##  2 ACT   Female Remanded ATSI           1 2005 Q2
##  3 ACT   Female Remanded ATSI           0 2005 Q3
##  4 ACT   Female Remanded ATSI           0 2005 Q4
##  5 ACT   Female Remanded ATSI           1 2006 Q1
##  6 ACT   Female Remanded ATSI           1 2006 Q2
##  7 ACT   Female Remanded ATSI           1 2006 Q3
##  8 ACT   Female Remanded ATSI           0 2006 Q4
##  9 ACT   Female Remanded ATSI           0 2007 Q1
## 10 ACT   Female Remanded ATSI           1 2007 Q2
## # ℹ 3,062 more rows
…
